{
  "id": 102,
  "name": "Category Y"
},
{
"id": 103,
"name": "Category Z"
},
{
"id": 104,
"name": "Category A"
},
{
"id": 105,
"name": "Category B"
},
{
"id": 106,
"name": "Category C"
},
{
"id": 107,
"name": "Category D"
},
{
"id": 108,
"name": "Category E"
},
{
"id": 109,
"name": "Category F"
},
{
"id": 110,
"name": "Category G"
}
]
